{
    "0.4.6": "toysync set slot fix & tts voice selection with index",
    "0.4.7": "readme updates --> still more work needed",
    "0.5.0": "MBCHC compatibility done.",
    "0.5.1": [
        "Morse task queue, allows multiple tasks at the same time (vibrations queue still wip)",
        "TTS doesnt read links, just says 'link",
        "TTS queue fixes"
    ],
    "0.5.4": "Fix tampermonkey side bug",
    "0.5.5": "Fix vanilla commands bug",
    "0.5.6": "Fix toysync toy slotting",
    "0.5.7": "Fix toysync finally",
    "0.5.8": "Fix voices not initializing at start",
    "0.6.0": [
        "Can now set individual voices to players",
        "'/tts-' + tab in chat to see tts commands",
        "'/tts-default-voice-set [index]' to set default voice ",
        "'/tts-player-voice-set [index] [playerId]' to set players voice (skipt playerId to set own voice)",
        "'/tts-toggle-sender' to voice PlayerName in tts messages too eg: (PlayerName says/whispers text)",
        "'/tts-current-skip' to skip current TTS voicing and start next line",
        "'/tts-clear-queue' to clear TTS queue",
        "and many more tts commands... UI coming soon. See Readme for help?",
        "tts text special char filtering (thank ChatGPT for regex)",
        "Thanks Jenna for the testing help. Will see if i can let others hear the voice you choose someway!"
    ],
    "0.6.2": "Remove 'Google voices' from TTS options, they are rate limited and cutoff really fast. Chrome is the problem.",
    "0.6.3": "Fix tts-current-skip from breaking tts voices. Also add '/tts-mod-changelog' command",
    "0.6.4": "Add default language selection to ENG & tts-toggle-all default on. Add /tts-see-icon to see other tts players. default off.",
    "0.7.0": "'/tts-ui' opens settings UI, currently only has a unbeautified TTS settings menu. Works, but lacks helping texts.",
    "0.7.1": "fix fusam loader version",
    "0.7.4": "Fix changelog messages for real",
    "0.7.5": "Improve /tts-ui spacing",
    "0.8.0": [
        "'/tts-ui' now with more settings. Removed commands that are in ui, overhaul other command words.",
        "ToySync now supports adding multiple devices to same slot"
    ],
    "0.8.1": "Readme update",
    "0.9.0": [
        "Morse settings added to ui",
        "Intiface url made configurable - might allow mobile users to connect now?"
    ],
    "0.9.1": "Add Club settings button to open Settings. Someone make me a png logo for it...",
    "0.9.2": "Add actual Logo - Thank you Toy ♥. Also readme link to settings",
    "0.10.0": "TTS to respect deprivations (toggleable, see settings) - For all the Toy's of the world.",
    "0.10.1": "Fix changelog version comparison.",
    "0.10.2": "Fix GagCheat check & initialization.",
    "0.10.3": "Add Pitch, Speed, Volume to TTS Voice options. Also fix option load bug...",
    "0.11.0": "Misc Options - default OFF --> Beeps can trigger Futuristic Vibrator voice commands.",
    "0.11.1": "Misc Options - Send response beep for FuturVib Beep trigger (default ON). Also some pointless optimizations.",
    "0.11.2": "Misc Options - Fix potential feedback look with triggers. Beep Shock now also sends action message to chatroom",
    "0.12.0": "Misc Options - Universal Remote extension",
    "0.12.1": "Misc Options - Universal Remote extension works with all configurable devices. Requires Target And Controller to have TTS mod & OPT IN.",
    "0.12.2": "Misc Options - Universal Remote extension fix bug preventing it from working",
    "0.12.3": "Misc Options - Universal Remote extension rework - Allows equip and remove of restrains too now.",
    "0.12.6": "Misc Options - Universal Remote extension bug fix.",
    "0.12.7": "Settings UI QoL - styling classnames, close btn & exit on click to outside of menu",
    "0.12.8": "Toysync - triggered by uniremote updates now.",
    "0.13.0": "TTS - Some subs will hear the voice in their mind. On by default.",
    "0.13.1": "TTS - Typo fix, sender situation fix.",
    "0.13.2": "TTS - BcxVoice turn off works now...",
    "0.13.3": "TTS - BcxVoice rate... also toggle fix.",
    "0.13.4": "TTS - BcxVoice wont voice if TTS Active is off",
    "0.14.0": [
        "UI Improvement: Settings Button moved to smaller RibbonMenu button, thanks Monikka & Responsive.",
        "New Feature: Pishock integration - sync pishock collar with shock events."
    ],
    "0.14.1": "Fix - TTS - BcxVoice now should work after room re-enters/relogins",
    "0.15.0": "New: TTS Toy sync, ability to synchronize toy vibration updates with tts voice reading, see Readme 'TTS Toysync' for instructions.",
    "0.15.1": "Change: TTS Toy sync - remove need for 'ttstoysync:' prefix. Improve mod code.",
    "0.15.2": "Fix: TTS Toy sync - emote issue when tts toy sync was on",
    "0.15.3": "Fix: Morse [id] devices --> now actually shares what device you have for morsing.",
    "0.15.4": "Fix: Pishock medium slider actually setting low shock value --> now sets medium intenisty shock value correctly ^^",
    "0.15.5": "New: Pishock allows setting shock operation to 'shock', 'vibrate', 'beep', if one wants to do fake shocks instead.",
    "0.15.6": "Fix: TTS special char filter more sensible - eg 24/7 will be twenty four seven, instead of two hundered and seven...",
    "0.15.7": "Fix: TTS special char filter more sensible - eg only specified chars ignored by tts --> * and ~ at the moment",
    "0.15.8": "Change: code idle performance improvements. Nothing users notice.",
    "1.0.0": "New: TTS AI Voices - requires TTS Voices Server, allows high quality locally generated AI voices for tts. Usage instructions still WIP, if interetsed in testing, go ask for help in, 'TTS Mod Room'",
    "1.0.1": "Fix: TTS voices bug fix.",
    "1.0.2": ["Add: TTS voice testing in settings ui", "Fix: TTS invalid voice string error."],
    "1.0.4": "Fix: TTS default voice initialization fix",
    "1.0.5": "Fix: ModSDK 1.0.2 update and BC renamed functions error.",
    "1.1.0": [
        "FIX: Change mod indicator to — (dash) and move it lower to not be covered by WCE.",
        "MAINT: Move mod button from Ribbon Menu to Extension settings.",
        "MAINT: Remove Gag Cheat setting, because of garbling changes.",
        "MAINT: Remove UniRemote settings, because it was removed.",
        "STYLE: Justify settings menu in center of screen.",
        "STYLE: Spread tabs for all length of settings menu.",
        "STYLE: Justify checkbox texts in center."
    ],
    "2.0.0": "New: Add experimental Kokoro-tts support - OFF by default. If you are using Windows + Chromium - worth a try. For others, not yet. Documentation missing but it techincally works out of box. Real time AI voices, locally produced (downloads 300 MB from huggingface - trusted AI provider at initialization)",
    "2.0.1": "Change: Scrap kokoro-tts for now, CORS prevents it...",
    "2.1.0": "New: Re-Add Kokoro-TTS, OFF by Default - loads only if activated. Now with queue generation too.",
    "2.2.0": "New: Move Kokoro-TTS voice generation to own thread - Now wont cause UI lag! Also should keep default voice now better.",
    "2.2.1": "New: Kokoro-TTS is cached in IndexDB, so shouldnt need to be redownloaded.",
    "2.2.2": "Change: Kokoro-TTS deactivation frees the resources it used now. Also set Kokoro voice as default when activated."
}
